%YAML 1.1
%TAG !u! tag:unity3d.com,2011:
--- !u!114 &11400000
MonoBehaviour:
  m_ObjectHideFlags: 0
  m_CorrespondingSourceObject: {fileID: 0}
  m_PrefabInstance: {fileID: 0}
  m_PrefabAsset: {fileID: 0}
  m_GameObject: {fileID: 0}
  m_Enabled: 1
  m_EditorHideFlags: 0
  m_Script: {fileID: 11500000, guid: fe32dd124b43543eeb574e078c3c3844, type: 3}
  m_Name: Car 7
  m_EditorClassIdentifier: 
  carPrefab: {fileID: 4329108618962512653, guid: 778e91923a2f64d40a2592187b19381c,
    type: 3}
  carName: BRV
  carRender: {fileID: 21300000, guid: 6c4b961e93599463090ba476a0ecd264, type: 3}
  Speed: 220
  Power: 140
  Brake: 40
  Drift: 20
  priceinCash: 10000
  priceinGold: 2000
