%YAML 1.1
%TAG !u! tag:unity3d.com,2011:
--- !u!114 &11400000
MonoBehaviour:
  m_ObjectHideFlags: 0
  m_CorrespondingSourceObject: {fileID: 0}
  m_PrefabInstance: {fileID: 0}
  m_PrefabAsset: {fileID: 0}
  m_GameObject: {fileID: 0}
  m_Enabled: 1
  m_EditorHideFlags: 0
  m_Script: {fileID: 11500000, guid: fe32dd124b43543eeb574e078c3c3844, type: 3}
  m_Name: Car 4
  m_EditorClassIdentifier: 
  carPrefab: {fileID: 4063353433192838450, guid: 2788fc06b5d87224a80c33c67cb70793,
    type: 3}
  carName: CIAZ
  carRender: {fileID: 21300000, guid: c5e796bc394be466bb7015babd7ca161, type: 3}
  Speed: 240
  Power: 150
  Brake: 40
  Drift: 30
  priceinCash: 15000
  priceinGold: 4000
