%YAML 1.1
%TAG !u! tag:unity3d.com,2011:
--- !u!114 &11400000
MonoBehaviour:
  m_ObjectHideFlags: 0
  m_CorrespondingSourceObject: {fileID: 0}
  m_PrefabInstance: {fileID: 0}
  m_PrefabAsset: {fileID: 0}
  m_GameObject: {fileID: 0}
  m_Enabled: 1
  m_EditorHideFlags: 0
  m_Script: {fileID: 11500000, guid: fe32dd124b43543eeb574e078c3c3844, type: 3}
  m_Name: Car 9
  m_EditorClassIdentifier: 
  carPrefab: {fileID: 5910648174187800079, guid: 64d1282ea359a904da632feb064d1958,
    type: 3}
  carName: Thundra
  carRender: {fileID: 21300000, guid: 4bda59786a2834a3dbc2f3277b762580, type: 3}
  Speed: 200
  Power: 120
  Brake: 50
  Drift: 30
  priceinCash: 0
  priceinGold: 0
